{   "config": {
        "@canal_1":{
            "category_id":"cat",
            "name":"@name",
            "number_of_videos":5
        },
        "@canal_2":{
            "category_id":"cat",
            "name":"@name",
            "number_of_videos":5
        }

    }
}
